<svg width="280" height="80" viewBox="0 0 280 80" fill="none" xmlns="http://www.w3.org/2000/svg">
<g filter="url(#filter0_ii_161_1049)">
<path d="M24.6026 4H255.397L275 40L255.397 76H24.6026L5 40L24.6026 4Z" fill="url(#paint0_linear_161_1049)"/>
<path d="M24.6026 4H255.397L275 40L255.397 76H24.6026L5 40L24.6026 4Z" fill="black" fill-opacity="0.25"/>
</g>
<path d="M24.6025 2H23.4143L22.8461 3.04356L3.24346 39.0436L2.72266 40L3.24346 40.9564L22.8461 76.9564L23.4143 78H24.6025H255.397H256.586L257.154 76.9564L276.756 40.9564L277.277 40L276.756 39.0436L257.154 3.04356L256.586 2H255.397H24.6025Z" stroke="url(#paint1_radial_161_1049)" stroke-width="4"/>
<defs>
<filter id="filter0_ii_161_1049" x="4" y="3" width="273" height="75" filterUnits="userSpaceOnUse" color-interpolation-filters="sRGB">
<feFlood flood-opacity="0" result="BackgroundImageFix"/>
<feBlend mode="normal" in="SourceGraphic" in2="BackgroundImageFix" result="shape"/>
<feColorMatrix in="SourceAlpha" type="matrix" values="0 0 0 0 0 0 0 0 0 0 0 0 0 0 0 0 0 0 127 0" result="hardAlpha"/>
<feOffset dx="-1" dy="-3"/>
<feGaussianBlur stdDeviation="0.5"/>
<feComposite in2="hardAlpha" operator="arithmetic" k2="-1" k3="1"/>
<feColorMatrix type="matrix" values="0 0 0 0 1 0 0 0 0 1 0 0 0 0 1 0 0 0 0.35 0"/>
<feBlend mode="normal" in2="shape" result="effect1_innerShadow_161_1049"/>
<feColorMatrix in="SourceAlpha" type="matrix" values="0 0 0 0 0 0 0 0 0 0 0 0 0 0 0 0 0 0 127 0" result="hardAlpha"/>
<feOffset dx="2" dy="5"/>
<feGaussianBlur stdDeviation="1"/>
<feComposite in2="hardAlpha" operator="arithmetic" k2="-1" k3="1"/>
<feColorMatrix type="matrix" values="0 0 0 0 0 0 0 0 0 0 0 0 0 0 0 0 0 0 0.25 0"/>
<feBlend mode="normal" in2="effect1_innerShadow_161_1049" result="effect2_innerShadow_161_1049"/>
</filter>
<linearGradient id="paint0_linear_161_1049" x1="5" y1="51.7032" x2="139.192" y2="-143.828" gradientUnits="userSpaceOnUse">
<stop offset="0.0677083" stop-color="#576265"/>
<stop offset="0.21875" stop-color="#9EA1A1"/>
<stop offset="0.453125" stop-color="#848B8A"/>
<stop offset="0.524381" stop-color="#576265"/>
<stop offset="0.796875" stop-color="#576265"/>
<stop offset="0.895833" stop-color="#757A7B"/>
<stop offset="1" stop-color="#576265"/>
</linearGradient>
<radialGradient id="paint1_radial_161_1049" cx="0" cy="0" r="1" gradientUnits="userSpaceOnUse" gradientTransform="translate(30.4329 13.7862) rotate(8.31624) scale(347.899 103.114)">
<stop stop-color="#FDF5E5"/>
<stop offset="0.727057" stop-color="#CEA662"/>
<stop offset="1" stop-color="#583C0D"/>
</radialGradient>
</defs>
</svg>
