<svg width="20" height="18" viewBox="0 0 20 18" fill="none" xmlns="http://www.w3.org/2000/svg">
<g filter="url(#filter0_ii_9_1141)">
<path d="M0 9L5 4.54262e-07L15 0L20 9L15 18H5L0 9Z" fill="url(#paint0_linear_9_1141)"/>
</g>
<defs>
<filter id="filter0_ii_9_1141" x="0" y="0" width="20" height="18" filterUnits="userSpaceOnUse" color-interpolation-filters="sRGB">
<feFlood flood-opacity="0" result="BackgroundImageFix"/>
<feBlend mode="normal" in="SourceGraphic" in2="BackgroundImageFix" result="shape"/>
<feColorMatrix in="SourceAlpha" type="matrix" values="0 0 0 0 0 0 0 0 0 0 0 0 0 0 0 0 0 0 127 0" result="hardAlpha"/>
<feOffset dy="1"/>
<feComposite in2="hardAlpha" operator="arithmetic" k2="-1" k3="1"/>
<feColorMatrix type="matrix" values="0 0 0 0 1 0 0 0 0 1 0 0 0 0 1 0 0 0 0.5 0"/>
<feBlend mode="normal" in2="shape" result="effect1_innerShadow_9_1141"/>
<feColorMatrix in="SourceAlpha" type="matrix" values="0 0 0 0 0 0 0 0 0 0 0 0 0 0 0 0 0 0 127 0" result="hardAlpha"/>
<feOffset dy="-1"/>
<feComposite in2="hardAlpha" operator="arithmetic" k2="-1" k3="1"/>
<feColorMatrix type="matrix" values="0 0 0 0 0 0 0 0 0 0 0 0 0 0 0 0 0 0 0.5 0"/>
<feBlend mode="normal" in2="effect1_innerShadow_9_1141" result="effect2_innerShadow_9_1141"/>
</filter>
<linearGradient id="paint0_linear_9_1141" x1="-7.55499e-08" y1="11.9258" x2="26.1671" y2="0.628588" gradientUnits="userSpaceOnUse">
<stop offset="0.0677083" stop-color="#F0DDBA"/>
<stop offset="0.524381" stop-color="#E4CA9D"/>
<stop offset="1" stop-color="#DEC08C"/>
</linearGradient>
</defs>
</svg>
