<svg width="110" height="22" viewBox="0 0 110 22" fill="none" xmlns="http://www.w3.org/2000/svg">
<path d="M10.0767 2.21993C10.4183 1.39864 11.5817 1.39864 11.9233 2.21993L13.675 6.4314C13.819 6.77764 14.1446 7.01421 14.5184 7.04418L19.065 7.40868C19.9517 7.47976 20.3112 8.58627 19.6357 9.16494L16.1716 12.1323C15.8868 12.3762 15.7624 12.759 15.8495 13.1238L16.9078 17.5605C17.1142 18.4257 16.1729 19.1096 15.4138 18.6459L11.5213 16.2684C11.2012 16.0729 10.7988 16.0729 10.4787 16.2684L6.58619 18.6459C5.82709 19.1096 4.88583 18.4257 5.09222 17.5605L6.15055 13.1238C6.23756 12.759 6.11318 12.3762 5.8284 12.1323L2.36434 9.16494C1.6888 8.58627 2.04832 7.47976 2.93498 7.40868L7.48162 7.04418C7.85541 7.01421 8.18102 6.77764 8.32503 6.43141L10.0767 2.21993Z" fill="#CEA662"/>
<path d="M32.0767 2.21993C32.4183 1.39864 33.5817 1.39864 33.9233 2.21993L35.675 6.4314C35.819 6.77764 36.1446 7.01421 36.5184 7.04418L41.065 7.40868C41.9517 7.47976 42.3112 8.58627 41.6357 9.16494L38.1716 12.1323C37.8868 12.3762 37.7624 12.759 37.8495 13.1238L38.9078 17.5605C39.1142 18.4257 38.1729 19.1096 37.4138 18.6459L33.5213 16.2684C33.2012 16.0729 32.7988 16.0729 32.4787 16.2684L28.5862 18.6459C27.8271 19.1096 26.8858 18.4257 27.0922 17.5605L28.1505 13.1238C28.2376 12.759 28.1132 12.3762 27.8284 12.1323L24.3643 9.16494C23.6888 8.58627 24.0483 7.47976 24.935 7.40868L29.4816 7.04418C29.8554 7.01421 30.181 6.77764 30.325 6.43141L32.0767 2.21993Z" fill="#CEA662"/>
<path d="M54.0767 2.21993C54.4183 1.39864 55.5817 1.39864 55.9233 2.21993L57.675 6.4314C57.819 6.77764 58.1446 7.01421 58.5184 7.04418L63.065 7.40868C63.9517 7.47976 64.3112 8.58627 63.6357 9.16494L60.1716 12.1323C59.8868 12.3762 59.7624 12.759 59.8495 13.1238L60.9078 17.5605C61.1142 18.4257 60.1729 19.1096 59.4138 18.6459L55.5213 16.2684C55.2012 16.0729 54.7988 16.0729 54.4787 16.2684L50.5862 18.6459C49.8271 19.1096 48.8858 18.4257 49.0922 17.5605L50.1505 13.1238C50.2376 12.759 50.1132 12.3762 49.8284 12.1323L46.3643 9.16494C45.6888 8.58627 46.0483 7.47976 46.935 7.40868L51.4816 7.04418C51.8554 7.01421 52.181 6.77764 52.325 6.43141L54.0767 2.21993Z" fill="#CEA662"/>
<path d="M76.0767 2.21993C76.4183 1.39864 77.5817 1.39864 77.9233 2.21993L79.675 6.4314C79.819 6.77764 80.1446 7.01421 80.5184 7.04418L85.065 7.40868C85.9517 7.47976 86.3112 8.58627 85.6357 9.16494L82.1716 12.1323C81.8868 12.3762 81.7624 12.759 81.8495 13.1238L82.9078 17.5605C83.1142 18.4257 82.1729 19.1096 81.4138 18.6459L77.5213 16.2684C77.2012 16.0729 76.7988 16.0729 76.4787 16.2684L72.5862 18.6459C71.8271 19.1096 70.8858 18.4257 71.0922 17.5605L72.1505 13.1238C72.2376 12.759 72.1132 12.3762 71.8284 12.1323L68.3643 9.16494C67.6888 8.58627 68.0483 7.47976 68.935 7.40868L73.4816 7.04418C73.8554 7.01421 74.181 6.77764 74.325 6.43141L76.0767 2.21993Z" fill="#CEA662"/>
<path d="M98.0767 2.21993C98.4183 1.39864 99.5817 1.39864 99.9233 2.21993L101.675 6.4314C101.819 6.77764 102.145 7.01421 102.518 7.04418L107.065 7.40868C107.952 7.47976 108.311 8.58627 107.636 9.16494L104.172 12.1323C103.887 12.3762 103.762 12.759 103.849 13.1238L104.908 17.5605C105.114 18.4257 104.173 19.1096 103.414 18.6459L99.5213 16.2684C99.2012 16.0729 98.7988 16.0729 98.4787 16.2684L94.5862 18.6459C93.8271 19.1096 92.8858 18.4257 93.0922 17.5605L94.1505 13.1238C94.2376 12.759 94.1132 12.3762 93.8284 12.1323L90.3643 9.16494C89.6888 8.58627 90.0483 7.47976 90.935 7.40868L95.4816 7.04418C95.8554 7.01421 96.181 6.77764 96.325 6.43141L98.0767 2.21993Z" fill="#D1D1D1"/>
</svg>
